[api-updater (non-obsolete-error-filter)] 16.11.2021 21:46:37 : Starting /home/louis/Unity/Hub/Editor/2020.3.21f1/Editor/Data/Tools/ScriptUpdater/APIUpdater.NonObsoleteApiUpdaterDetector.exe
[api-updater (non-obsolete-error-filter)] 
----------------------------------
jit/startup time      : 145,45ms
moved types parse time: 75ms
candidates parse time : 1ms
C# parse time         : 244ms
candidates check time : 33ms
console write time    : 0ms

[api-updater (non-obsolete-error-filter)] 16.11.2021 21:46:55 : Starting /home/louis/Unity/Hub/Editor/2020.3.21f1/Editor/Data/Tools/ScriptUpdater/APIUpdater.NonObsoleteApiUpdaterDetector.exe
[api-updater (non-obsolete-error-filter)] 
----------------------------------
jit/startup time      : 63,877ms
moved types parse time: 51ms
candidates parse time : 1ms
C# parse time         : 199ms
candidates check time : 28ms
console write time    : 0ms

[api-updater (non-obsolete-error-filter)] 20/11/2021 12:28:33 : Starting /home/louis/Unity/Hub/Editor/2020.3.21f1/Editor/Data/Tools/ScriptUpdater/APIUpdater.NonObsoleteApiUpdaterDetector.exe
[api-updater (non-obsolete-error-filter)] 
----------------------------------
jit/startup time      : 172,969ms
moved types parse time: 61ms
candidates parse time : 1ms
C# parse time         : 340ms
candidates check time : 34ms
console write time    : 0ms

[api-updater (non-obsolete-error-filter)] 20/11/2021 13:06:22 : Starting /home/louis/Unity/Hub/Editor/2020.3.21f1/Editor/Data/Tools/ScriptUpdater/APIUpdater.NonObsoleteApiUpdaterDetector.exe
[api-updater (non-obsolete-error-filter)] 
----------------------------------
jit/startup time      : 199,32ms
moved types parse time: 108ms
candidates parse time : 2ms
C# parse time         : 326ms
candidates check time : 34ms
console write time    : 0ms

[api-updater (non-obsolete-error-filter)] 20/11/2021 13:06:40 : Starting /home/louis/Unity/Hub/Editor/2020.3.21f1/Editor/Data/Tools/ScriptUpdater/APIUpdater.NonObsoleteApiUpdaterDetector.exe
[api-updater (non-obsolete-error-filter)] 
----------------------------------
jit/startup time      : 62,129ms
moved types parse time: 88ms
candidates parse time : 1ms
C# parse time         : 266ms
candidates check time : 34ms
console write time    : 0ms

[api-updater (non-obsolete-error-filter)] 20/11/2021 13:32:47 : Starting /home/louis/Unity/Hub/Editor/2020.3.21f1/Editor/Data/Tools/ScriptUpdater/APIUpdater.NonObsoleteApiUpdaterDetector.exe
[api-updater (non-obsolete-error-filter)] 
----------------------------------
jit/startup time      : 74,461ms
moved types parse time: 53ms
candidates parse time : 1ms
C# parse time         : 224ms
candidates check time : 32ms
console write time    : 0ms

[api-updater (non-obsolete-error-filter)] 20/11/2021 13:37:38 : Starting /home/louis/Unity/Hub/Editor/2020.3.21f1/Editor/Data/Tools/ScriptUpdater/APIUpdater.NonObsoleteApiUpdaterDetector.exe
[api-updater (non-obsolete-error-filter)] 
----------------------------------
jit/startup time      : 105,213ms
moved types parse time: 66ms
candidates parse time : 1ms
C# parse time         : 235ms
candidates check time : 35ms
console write time    : 0ms

[api-updater (non-obsolete-error-filter)] 20/11/2021 14:41:33 : Starting /home/louis/Unity/Hub/Editor/2020.3.21f1/Editor/Data/Tools/ScriptUpdater/APIUpdater.NonObsoleteApiUpdaterDetector.exe
[api-updater (non-obsolete-error-filter)] 
----------------------------------
jit/startup time      : 244,395ms
moved types parse time: 54ms
candidates parse time : 1ms
C# parse time         : 233ms
candidates check time : 35ms
console write time    : 0ms

[api-updater (non-obsolete-error-filter)] 20/11/2021 14:41:59 : Starting /home/louis/Unity/Hub/Editor/2020.3.21f1/Editor/Data/Tools/ScriptUpdater/APIUpdater.NonObsoleteApiUpdaterDetector.exe
[api-updater (non-obsolete-error-filter)] 
----------------------------------
jit/startup time      : 136,933ms
moved types parse time: 55ms
candidates parse time : 1ms
C# parse time         : 227ms
candidates check time : 35ms
console write time    : 0ms

[api-updater (non-obsolete-error-filter)] 13/12/2021 16:11:41 : Starting /home/louis/Unity/Hub/Editor/2020.3.21f1/Editor/Data/Tools/ScriptUpdater/APIUpdater.NonObsoleteApiUpdaterDetector.exe
[api-updater (non-obsolete-error-filter)] 
----------------------------------
jit/startup time      : 169,465ms
moved types parse time: 53ms
candidates parse time : 1ms
C# parse time         : 258ms
candidates check time : 37ms
console write time    : 0ms

[api-updater (non-obsolete-error-filter)] 13/12/2021 16:12:11 : Starting /home/louis/Unity/Hub/Editor/2020.3.21f1/Editor/Data/Tools/ScriptUpdater/APIUpdater.NonObsoleteApiUpdaterDetector.exe
[api-updater (non-obsolete-error-filter)] 
----------------------------------
jit/startup time      : 79,275ms
moved types parse time: 54ms
candidates parse time : 1ms
C# parse time         : 294ms
candidates check time : 53ms
console write time    : 0ms

[api-updater (non-obsolete-error-filter)] 17/12/2021 15:44:44 : Starting /home/louis/Unity/Hub/Editor/2020.3.21f1/Editor/Data/Tools/ScriptUpdater/APIUpdater.NonObsoleteApiUpdaterDetector.exe
[api-updater (non-obsolete-error-filter)] 
----------------------------------
jit/startup time      : 126,757ms
moved types parse time: 59ms
candidates parse time : 1ms
C# parse time         : 262ms
candidates check time : 51ms
console write time    : 0ms

[api-updater (non-obsolete-error-filter)] 19/12/2021 16:20:44 : Starting /home/louis/Unity/Hub/Editor/2020.3.21f1/Editor/Data/Tools/ScriptUpdater/APIUpdater.NonObsoleteApiUpdaterDetector.exe
[api-updater (non-obsolete-error-filter)] 
----------------------------------
jit/startup time      : 199,376ms
moved types parse time: 56ms
candidates parse time : 1ms
C# parse time         : 211ms
candidates check time : 31ms
console write time    : 0ms

[api-updater (non-obsolete-error-filter)] 19/12/2021 16:20:49 : Starting /home/louis/Unity/Hub/Editor/2020.3.21f1/Editor/Data/Tools/ScriptUpdater/APIUpdater.NonObsoleteApiUpdaterDetector.exe
[api-updater (non-obsolete-error-filter)] 
----------------------------------
jit/startup time      : 55,598ms
moved types parse time: 57ms
candidates parse time : 1ms
C# parse time         : 192ms
candidates check time : 29ms
console write time    : 0ms

[api-updater (non-obsolete-error-filter)] 19/12/2021 16:45:36 : Starting /home/louis/Unity/Hub/Editor/2020.3.21f1/Editor/Data/Tools/ScriptUpdater/APIUpdater.NonObsoleteApiUpdaterDetector.exe
[api-updater (non-obsolete-error-filter)] 
----------------------------------
jit/startup time      : 53,602ms
moved types parse time: 61ms
candidates parse time : 1ms
C# parse time         : 249ms
candidates check time : 32ms
console write time    : 0ms

[api-updater (non-obsolete-error-filter)] 19/12/2021 17:04:31 : Starting /home/louis/Unity/Hub/Editor/2020.3.21f1/Editor/Data/Tools/ScriptUpdater/APIUpdater.NonObsoleteApiUpdaterDetector.exe
[api-updater (non-obsolete-error-filter)] 
----------------------------------
jit/startup time      : 114,318ms
moved types parse time: 54ms
candidates parse time : 1ms
C# parse time         : 188ms
candidates check time : 27ms
console write time    : 0ms

[api-updater (non-obsolete-error-filter)] 19/12/2021 17:04:37 : Starting /home/louis/Unity/Hub/Editor/2020.3.21f1/Editor/Data/Tools/ScriptUpdater/APIUpdater.NonObsoleteApiUpdaterDetector.exe
[api-updater (non-obsolete-error-filter)] 
----------------------------------
jit/startup time      : 123,689ms
moved types parse time: 54ms
candidates parse time : 1ms
C# parse time         : 194ms
candidates check time : 30ms
console write time    : 0ms

[api-updater (non-obsolete-error-filter)] 19/12/2021 17:04:45 : Starting /home/louis/Unity/Hub/Editor/2020.3.21f1/Editor/Data/Tools/ScriptUpdater/APIUpdater.NonObsoleteApiUpdaterDetector.exe
[api-updater (non-obsolete-error-filter)] 
----------------------------------
jit/startup time      : 116,155ms
moved types parse time: 51ms
candidates parse time : 1ms
C# parse time         : 190ms
candidates check time : 31ms
console write time    : 0ms

[api-updater (non-obsolete-error-filter)] 20/12/2021 21:27:47 : Starting /home/louis/Unity/Hub/Editor/2020.3.21f1/Editor/Data/Tools/ScriptUpdater/APIUpdater.NonObsoleteApiUpdaterDetector.exe
[api-updater (non-obsolete-error-filter)] 
----------------------------------
jit/startup time      : 183,595ms
moved types parse time: 63ms
candidates parse time : 1ms
C# parse time         : 308ms
candidates check time : 54ms
console write time    : 0ms

[api-updater (non-obsolete-error-filter)] 22/12/2021 19:09:50 : Starting /home/louis/Unity/Hub/Editor/2020.3.21f1/Editor/Data/Tools/ScriptUpdater/APIUpdater.NonObsoleteApiUpdaterDetector.exe
[api-updater (non-obsolete-error-filter)] 
----------------------------------
jit/startup time      : 125,419ms
moved types parse time: 53ms
candidates parse time : 1ms
C# parse time         : 221ms
candidates check time : 40ms
console write time    : 0ms

[api-updater (non-obsolete-error-filter)] 22/12/2021 19:18:08 : Starting /home/louis/Unity/Hub/Editor/2020.3.21f1/Editor/Data/Tools/ScriptUpdater/APIUpdater.NonObsoleteApiUpdaterDetector.exe
[api-updater (non-obsolete-error-filter)] 
----------------------------------
jit/startup time      : 60,154ms
moved types parse time: 55ms
candidates parse time : 1ms
C# parse time         : 237ms
candidates check time : 36ms
console write time    : 0ms

[api-updater (non-obsolete-error-filter)] 22/12/2021 19:20:13 : Starting /home/louis/Unity/Hub/Editor/2020.3.21f1/Editor/Data/Tools/ScriptUpdater/APIUpdater.NonObsoleteApiUpdaterDetector.exe
[api-updater (non-obsolete-error-filter)] 
----------------------------------
jit/startup time      : 69,451ms
moved types parse time: 61ms
candidates parse time : 1ms
C# parse time         : 271ms
candidates check time : 46ms
console write time    : 0ms

[api-updater (non-obsolete-error-filter)] 23/12/2021 18:47:10 : Starting /home/louis/Unity/Hub/Editor/2020.3.21f1/Editor/Data/Tools/ScriptUpdater/APIUpdater.NonObsoleteApiUpdaterDetector.exe
[api-updater (non-obsolete-error-filter)] 
----------------------------------
jit/startup time      : 175,722ms
moved types parse time: 64ms
candidates parse time : 1ms
C# parse time         : 281ms
candidates check time : 37ms
console write time    : 0ms

[api-updater (non-obsolete-error-filter)] 23/12/2021 19:19:39 : Starting /home/louis/Unity/Hub/Editor/2020.3.21f1/Editor/Data/Tools/ScriptUpdater/APIUpdater.NonObsoleteApiUpdaterDetector.exe
[api-updater (non-obsolete-error-filter)] 
----------------------------------
jit/startup time      : 71,476ms
moved types parse time: 56ms
candidates parse time : 1ms
C# parse time         : 230ms
candidates check time : 41ms
console write time    : 0ms

[api-updater (non-obsolete-error-filter)] 23/12/2021 21:40:21 : Starting /home/louis/Unity/Hub/Editor/2020.3.21f1/Editor/Data/Tools/ScriptUpdater/APIUpdater.NonObsoleteApiUpdaterDetector.exe
[api-updater (non-obsolete-error-filter)] 
----------------------------------
jit/startup time      : 61,196ms
moved types parse time: 62ms
candidates parse time : 1ms
C# parse time         : 277ms
candidates check time : 42ms
console write time    : 0ms

[api-updater (non-obsolete-error-filter)] 23/12/2021 21:40:44 : Starting /home/louis/Unity/Hub/Editor/2020.3.21f1/Editor/Data/Tools/ScriptUpdater/APIUpdater.NonObsoleteApiUpdaterDetector.exe
[api-updater (non-obsolete-error-filter)] 
----------------------------------
jit/startup time      : 68,861ms
moved types parse time: 62ms
candidates parse time : 1ms
C# parse time         : 281ms
candidates check time : 40ms
console write time    : 0ms

[api-updater (non-obsolete-error-filter)] 27/12/2021 21:01:00 : Starting /home/louis/Unity/Hub/Editor/2020.3.21f1/Editor/Data/Tools/ScriptUpdater/APIUpdater.NonObsoleteApiUpdaterDetector.exe
[api-updater (non-obsolete-error-filter)] 
----------------------------------
jit/startup time      : 174,5ms
moved types parse time: 58ms
candidates parse time : 1ms
C# parse time         : 232ms
candidates check time : 33ms
console write time    : 0ms

[api-updater (non-obsolete-error-filter)] 28/12/2021 21:58:19 : Starting /home/louis/Unity/Hub/Editor/2020.3.21f1/Editor/Data/Tools/ScriptUpdater/APIUpdater.NonObsoleteApiUpdaterDetector.exe
[api-updater (non-obsolete-error-filter)] 
----------------------------------
jit/startup time      : 52,568ms
moved types parse time: 55ms
candidates parse time : 1ms
C# parse time         : 250ms
candidates check time : 40ms
console write time    : 0ms

[api-updater (non-obsolete-error-filter)] 29/12/2021 23:46:53 : Starting /home/louis/Unity/Hub/Editor/2020.3.21f1/Editor/Data/Tools/ScriptUpdater/APIUpdater.NonObsoleteApiUpdaterDetector.exe
[api-updater (non-obsolete-error-filter)] 
----------------------------------
jit/startup time      : 187,296ms
moved types parse time: 54ms
candidates parse time : 1ms
C# parse time         : 278ms
candidates check time : 33ms
console write time    : 0ms

[api-updater (non-obsolete-error-filter)] 29/12/2021 23:47:54 : Starting /home/louis/Unity/Hub/Editor/2020.3.21f1/Editor/Data/Tools/ScriptUpdater/APIUpdater.NonObsoleteApiUpdaterDetector.exe
[api-updater (non-obsolete-error-filter)] 
----------------------------------
jit/startup time      : 79,115ms
moved types parse time: 56ms
candidates parse time : 1ms
C# parse time         : 234ms
candidates check time : 36ms
console write time    : 0ms

[api-updater (non-obsolete-error-filter)] 29/12/2021 23:48:32 : Starting /home/louis/Unity/Hub/Editor/2020.3.21f1/Editor/Data/Tools/ScriptUpdater/APIUpdater.NonObsoleteApiUpdaterDetector.exe
[api-updater (non-obsolete-error-filter)] 
----------------------------------
jit/startup time      : 74,418ms
moved types parse time: 62ms
candidates parse time : 1ms
C# parse time         : 277ms
candidates check time : 64ms
console write time    : 0ms

[api-updater (non-obsolete-error-filter)] 29/12/2021 23:48:51 : Starting /home/louis/Unity/Hub/Editor/2020.3.21f1/Editor/Data/Tools/ScriptUpdater/APIUpdater.NonObsoleteApiUpdaterDetector.exe
[api-updater (non-obsolete-error-filter)] 
----------------------------------
jit/startup time      : 121,678ms
moved types parse time: 55ms
candidates parse time : 1ms
C# parse time         : 240ms
candidates check time : 54ms
console write time    : 0ms

[api-updater (non-obsolete-error-filter)] 29/12/2021 23:49:00 : Starting /home/louis/Unity/Hub/Editor/2020.3.21f1/Editor/Data/Tools/ScriptUpdater/APIUpdater.NonObsoleteApiUpdaterDetector.exe
[api-updater (non-obsolete-error-filter)] 
----------------------------------
jit/startup time      : 124,856ms
moved types parse time: 55ms
candidates parse time : 1ms
C# parse time         : 238ms
candidates check time : 46ms
console write time    : 0ms

[api-updater (non-obsolete-error-filter)] 29/12/2021 23:49:05 : Starting /home/louis/Unity/Hub/Editor/2020.3.21f1/Editor/Data/Tools/ScriptUpdater/APIUpdater.NonObsoleteApiUpdaterDetector.exe
[api-updater (non-obsolete-error-filter)] 
----------------------------------
jit/startup time      : 87,195ms
moved types parse time: 57ms
candidates parse time : 1ms
C# parse time         : 235ms
candidates check time : 38ms
console write time    : 0ms

[api-updater (non-obsolete-error-filter)] 30/12/2021 01:13:01 : Starting /home/louis/Unity/Hub/Editor/2020.3.21f1/Editor/Data/Tools/ScriptUpdater/APIUpdater.NonObsoleteApiUpdaterDetector.exe
[api-updater (non-obsolete-error-filter)] 
----------------------------------
jit/startup time      : 64,762ms
moved types parse time: 50ms
candidates parse time : 1ms
C# parse time         : 227ms
candidates check time : 30ms
console write time    : 0ms

[api-updater (non-obsolete-error-filter)] 30/12/2021 01:13:16 : Starting /home/louis/Unity/Hub/Editor/2020.3.21f1/Editor/Data/Tools/ScriptUpdater/APIUpdater.NonObsoleteApiUpdaterDetector.exe
[api-updater (non-obsolete-error-filter)] 
----------------------------------
jit/startup time      : 132,971ms
moved types parse time: 56ms
candidates parse time : 1ms
C# parse time         : 229ms
candidates check time : 49ms
console write time    : 0ms

[api-updater (non-obsolete-error-filter)] 30/12/2021 01:14:17 : Starting /home/louis/Unity/Hub/Editor/2020.3.21f1/Editor/Data/Tools/ScriptUpdater/APIUpdater.NonObsoleteApiUpdaterDetector.exe
[api-updater (non-obsolete-error-filter)] 
----------------------------------
jit/startup time      : 79,598ms
moved types parse time: 62ms
candidates parse time : 1ms
C# parse time         : 291ms
candidates check time : 54ms
console write time    : 0ms

[api-updater (non-obsolete-error-filter)] 30/12/2021 01:14:39 : Starting /home/louis/Unity/Hub/Editor/2020.3.21f1/Editor/Data/Tools/ScriptUpdater/APIUpdater.NonObsoleteApiUpdaterDetector.exe
[api-updater (non-obsolete-error-filter)] 
----------------------------------
jit/startup time      : 67,619ms
moved types parse time: 53ms
candidates parse time : 1ms
C# parse time         : 239ms
candidates check time : 33ms
console write time    : 0ms

[api-updater (non-obsolete-error-filter)] 30/12/2021 01:14:48 : Starting /home/louis/Unity/Hub/Editor/2020.3.21f1/Editor/Data/Tools/ScriptUpdater/APIUpdater.NonObsoleteApiUpdaterDetector.exe
[api-updater (non-obsolete-error-filter)] 
----------------------------------
jit/startup time      : 78,3ms
moved types parse time: 54ms
candidates parse time : 1ms
C# parse time         : 243ms
candidates check time : 33ms
console write time    : 0ms

[api-updater (non-obsolete-error-filter)] 30/12/2021 01:15:06 : Starting /home/louis/Unity/Hub/Editor/2020.3.21f1/Editor/Data/Tools/ScriptUpdater/APIUpdater.NonObsoleteApiUpdaterDetector.exe
[api-updater (non-obsolete-error-filter)] 
----------------------------------
jit/startup time      : 77,365ms
moved types parse time: 55ms
candidates parse time : 1ms
C# parse time         : 239ms
candidates check time : 34ms
console write time    : 0ms

[api-updater (non-obsolete-error-filter)] 30/12/2021 02:27:02 : Starting /home/louis/Unity/Hub/Editor/2020.3.21f1/Editor/Data/Tools/ScriptUpdater/APIUpdater.NonObsoleteApiUpdaterDetector.exe
[api-updater (non-obsolete-error-filter)] 
----------------------------------
jit/startup time      : 69,278ms
moved types parse time: 54ms
candidates parse time : 1ms
C# parse time         : 232ms
candidates check time : 37ms
console write time    : 0ms

[api-updater (non-obsolete-error-filter)] 30/12/2021 02:27:30 : Starting /home/louis/Unity/Hub/Editor/2020.3.21f1/Editor/Data/Tools/ScriptUpdater/APIUpdater.NonObsoleteApiUpdaterDetector.exe
[api-updater (non-obsolete-error-filter)] 
----------------------------------
jit/startup time      : 122,189ms
moved types parse time: 63ms
candidates parse time : 1ms
C# parse time         : 277ms
candidates check time : 43ms
console write time    : 0ms

[api-updater (non-obsolete-error-filter)] 30/12/2021 02:48:56 : Starting /home/louis/Unity/Hub/Editor/2020.3.21f1/Editor/Data/Tools/ScriptUpdater/APIUpdater.NonObsoleteApiUpdaterDetector.exe
[api-updater (non-obsolete-error-filter)] 
----------------------------------
jit/startup time      : 71,973ms
moved types parse time: 56ms
candidates parse time : 1ms
C# parse time         : 199ms
candidates check time : 22ms
console write time    : 0ms

[api-updater (non-obsolete-error-filter)] 30/12/2021 03:23:38 : Starting /home/louis/Unity/Hub/Editor/2020.3.21f1/Editor/Data/Tools/ScriptUpdater/APIUpdater.NonObsoleteApiUpdaterDetector.exe
[api-updater (non-obsolete-error-filter)] 
----------------------------------
jit/startup time      : 144,544ms
moved types parse time: 57ms
candidates parse time : 1ms
C# parse time         : 255ms
candidates check time : 35ms
console write time    : 0ms

[api-updater (non-obsolete-error-filter)] 30/12/2021 03:26:03 : Starting /home/louis/Unity/Hub/Editor/2020.3.21f1/Editor/Data/Tools/ScriptUpdater/APIUpdater.NonObsoleteApiUpdaterDetector.exe
[api-updater (non-obsolete-error-filter)] 
----------------------------------
jit/startup time      : 108,353ms
moved types parse time: 55ms
candidates parse time : 1ms
C# parse time         : 231ms
candidates check time : 33ms
console write time    : 0ms

[api-updater (non-obsolete-error-filter)] 30/12/2021 03:26:17 : Starting /home/louis/Unity/Hub/Editor/2020.3.21f1/Editor/Data/Tools/ScriptUpdater/APIUpdater.NonObsoleteApiUpdaterDetector.exe
[api-updater (non-obsolete-error-filter)] 
----------------------------------
jit/startup time      : 109,519ms
moved types parse time: 54ms
candidates parse time : 1ms
C# parse time         : 241ms
candidates check time : 45ms
console write time    : 0ms

[api-updater (non-obsolete-error-filter)] 30/12/2021 21:23:08 : Starting /home/louis/Unity/Hub/Editor/2020.3.21f1/Editor/Data/Tools/ScriptUpdater/APIUpdater.NonObsoleteApiUpdaterDetector.exe
[api-updater (non-obsolete-error-filter)] 
----------------------------------
jit/startup time      : 210,774ms
moved types parse time: 69ms
candidates parse time : 1ms
C# parse time         : 264ms
candidates check time : 38ms
console write time    : 0ms

[api-updater (non-obsolete-error-filter)] 30/12/2021 21:25:32 : Starting /home/louis/Unity/Hub/Editor/2020.3.21f1/Editor/Data/Tools/ScriptUpdater/APIUpdater.NonObsoleteApiUpdaterDetector.exe
[api-updater (non-obsolete-error-filter)] 
----------------------------------
jit/startup time      : 102,348ms
moved types parse time: 55ms
candidates parse time : 1ms
C# parse time         : 240ms
candidates check time : 40ms
console write time    : 0ms

[api-updater (non-obsolete-error-filter)] 30/12/2021 21:38:22 : Starting /home/louis/Unity/Hub/Editor/2020.3.21f1/Editor/Data/Tools/ScriptUpdater/APIUpdater.NonObsoleteApiUpdaterDetector.exe
[api-updater (non-obsolete-error-filter)] 
----------------------------------
jit/startup time      : 162,992ms
moved types parse time: 58ms
candidates parse time : 1ms
C# parse time         : 250ms
candidates check time : 41ms
console write time    : 0ms

[api-updater (non-obsolete-error-filter)] 30/12/2021 21:42:00 : Starting /home/louis/Unity/Hub/Editor/2020.3.21f1/Editor/Data/Tools/ScriptUpdater/APIUpdater.NonObsoleteApiUpdaterDetector.exe
[api-updater (non-obsolete-error-filter)] 
----------------------------------
jit/startup time      : 76,346ms
moved types parse time: 53ms
candidates parse time : 1ms
C# parse time         : 243ms
candidates check time : 34ms
console write time    : 0ms

